<?xml version='1.0'?>
<ns2:test-suite xmlns:ns2='urn:model.allure.qatools.yandex.ru' start='1702653348760' stop='1702653363739'>
    <name>Validate 'sign up' overlay triggers for buttons on psychic livestream</name>
    <title>Validate 'sign up' overlay triggers for buttons on psychic livestream</title>
    <test-cases>
        <test-case start='1702653348761' status='passed' stop='1702653363635'>
            <name>Check the psychic is live and validate the buttons</name>
            <title>Check the psychic is live and validate the buttons</title>
            <labels>
                <label name='language' value='javascript'/>
                <label name='framework' value='codeceptjs'/>
            </labels>
            <parameters/>
            <steps>
                <step start='1702653349001' status='passed' stop='1702653358947'>
                    <name>And the psychic is live ""</name>
                    <title>And the psychic is live ""</title>
                    <attachments/>
                    <steps>
                        <step start='1702653349001' status='passed' stop='1702653358812'>
                            <name>I am on page "https://oranum.com/en/chat/LovePsychyicAnie"</name>
                            <title>I am on page "https://oranum.com/en/chat/LovePsychyicAnie"</title>
                            <attachments/>
                            <steps/>
                        </step>
                        <step start='1702653358812' status='passed' stop='1702653358935'>
                            <name>I wait for element "//div[@class='mc_video_overlay mc_js_video_overlay']", 40</name>
                            <title>I wait for element "//div[@class='mc_video_overlay mc_js_video_overlay']", 40</title>
                            <attachments/>
                            <steps/>
                        </step>
                        <step start='1702653358936' status='passed' stop='1702653358944'>
                            <name>I see element "//div[@class='mc_video_overlay mc_js_video_overlay']"</name>
                            <title>I see element "//div[@class='mc_video_overlay mc_js_video_overlay']"</title>
                            <attachments/>
                            <steps/>
                        </step>
                    </steps>
                </step>
                <step start='1702653358947' status='passed' stop='1702653359330'>
                    <name>When I click the 'Get Credits' button ""</name>
                    <title>When I click the 'Get Credits' button ""</title>
                    <attachments/>
                    <steps>
                        <step start='1702653358947' status='passed' stop='1702653359325'>
                            <name>I click "//div[@data-id='buyCreditIcon']"</name>
                            <title>I click "//div[@data-id='buyCreditIcon']"</title>
                            <attachments/>
                            <steps/>
                        </step>
                    </steps>
                </step>
                <step start='1702653359330' status='passed' stop='1702653359609'>
                    <name>Then the 'Sign up' overlay is displayed ""</name>
                    <title>Then the 'Sign up' overlay is displayed ""</title>
                    <attachments/>
                    <steps>
                        <step start='1702653359330' status='passed' stop='1702653359337'>
                            <name>I wait for element ".mc_dialog__header", 60, {"visible":true,"interval":1000}</name>
                            <title>I wait for element ".mc_dialog__header", 60, {"visible":true,"interval":1000}</title>
                            <attachments/>
                            <steps/>
                        </step>
                        <step start='1702653359337' status='passed' stop='1702653359346'>
                            <name>I grab text from ".mc_dialog__header"</name>
                            <title>I grab text from ".mc_dialog__header"</title>
                            <attachments/>
                            <steps/>
                        </step>
                        <step start='1702653359346' status='passed' stop='1702653359352'>
                            <name>I wait for element "//a[@class='mc_dialog__close js_close_dialog'][1]", 5</name>
                            <title>I wait for element "//a[@class='mc_dialog__close js_close_dialog'][1]", 5</title>
                            <attachments/>
                            <steps/>
                        </step>
                        <step start='1702653359354' status='passed' stop='1702653359605'>
                            <name>I click {xpath: (//a[@class='mc_dialog__close js_close_dialog'][1])[position()=1]}</name>
                            <title>I click {xpath: (//a[@class='mc_dialog__close js_close_dialog'][1])[position()=1]}</title>
                            <attachments/>
                            <steps/>
                        </step>
                    </steps>
                </step>
                <step start='1702653359609' status='passed' stop='1702653359880'>
                    <name>When I click the 'Add to Favorites' button ""</name>
                    <title>When I click the 'Add to Favorites' button ""</title>
                    <attachments/>
                    <steps>
                        <step start='1702653359609' status='passed' stop='1702653359877'>
                            <name>I click ".mc_heart_anim_container"</name>
                            <title>I click ".mc_heart_anim_container"</title>
                            <attachments/>
                            <steps/>
                        </step>
                    </steps>
                </step>
                <step start='1702653359880' status='passed' stop='1702653360092'>
                    <name>Then the 'Sign up' overlay is displayed ""</name>
                    <title>Then the 'Sign up' overlay is displayed ""</title>
                    <attachments/>
                    <steps>
                        <step start='1702653359880' status='passed' stop='1702653359887'>
                            <name>I wait for element ".mc_dialog__header", 60, {"visible":true,"interval":1000}</name>
                            <title>I wait for element ".mc_dialog__header", 60, {"visible":true,"interval":1000}</title>
                            <attachments/>
                            <steps/>
                        </step>
                        <step start='1702653359887' status='passed' stop='1702653359893'>
                            <name>I grab text from ".mc_dialog__header"</name>
                            <title>I grab text from ".mc_dialog__header"</title>
                            <attachments/>
                            <steps/>
                        </step>
                        <step start='1702653359893' status='passed' stop='1702653359898'>
                            <name>I wait for element "//a[@class='mc_dialog__close js_close_dialog'][1]", 5</name>
                            <title>I wait for element "//a[@class='mc_dialog__close js_close_dialog'][1]", 5</title>
                            <attachments/>
                            <steps/>
                        </step>
                        <step start='1702653359898' status='passed' stop='1702653360089'>
                            <name>I click {xpath: (//a[@class='mc_dialog__close js_close_dialog'][1])[position()=1]}</name>
                            <title>I click {xpath: (//a[@class='mc_dialog__close js_close_dialog'][1])[position()=1]}</title>
                            <attachments/>
                            <steps/>
                        </step>
                    </steps>
                </step>
                <step start='1702653360092' status='passed' stop='1702653362362'>
                    <name>When I click the 'Surprise' button ""</name>
                    <title>When I click the 'Surprise' button ""</title>
                    <attachments/>
                    <steps>
                        <step start='1702653360092' status='passed' stop='1702653362360'>
                            <name>I click "div[data-testid='surprise-OranumSurprisesGlobe_LJ']"</name>
                            <title>I click "div[data-testid='surprise-OranumSurprisesGlobe_LJ']"</title>
                            <attachments/>
                            <steps/>
                        </step>
                    </steps>
                </step>
                <step start='1702653362362' status='passed' stop='1702653362623'>
                    <name>Then the 'Sign up' overlay is displayed ""</name>
                    <title>Then the 'Sign up' overlay is displayed ""</title>
                    <attachments/>
                    <steps>
                        <step start='1702653362362' status='passed' stop='1702653362369'>
                            <name>I wait for element ".mc_dialog__header", 60, {"visible":true,"interval":1000}</name>
                            <title>I wait for element ".mc_dialog__header", 60, {"visible":true,"interval":1000}</title>
                            <attachments/>
                            <steps/>
                        </step>
                        <step start='1702653362370' status='passed' stop='1702653362375'>
                            <name>I grab text from ".mc_dialog__header"</name>
                            <title>I grab text from ".mc_dialog__header"</title>
                            <attachments/>
                            <steps/>
                        </step>
                        <step start='1702653362376' status='passed' stop='1702653362383'>
                            <name>I wait for element "//a[@class='mc_dialog__close js_close_dialog'][1]", 5</name>
                            <title>I wait for element "//a[@class='mc_dialog__close js_close_dialog'][1]", 5</title>
                            <attachments/>
                            <steps/>
                        </step>
                        <step start='1702653362384' status='passed' stop='1702653362619'>
                            <name>I click {xpath: (//a[@class='mc_dialog__close js_close_dialog'][1])[position()=1]}</name>
                            <title>I click {xpath: (//a[@class='mc_dialog__close js_close_dialog'][1])[position()=1]}</title>
                            <attachments/>
                            <steps/>
                        </step>
                    </steps>
                </step>
                <step start='1702653362623' status='passed' stop='1702653362861'>
                    <name>When I click the 'Get Coins' button ""</name>
                    <title>When I click the 'Get Coins' button ""</title>
                    <attachments/>
                    <steps>
                        <step start='1702653362623' status='passed' stop='1702653362859'>
                            <name>I click "//div[@class='mc_bottom_action_bar']"</name>
                            <title>I click "//div[@class='mc_bottom_action_bar']"</title>
                            <attachments/>
                            <steps/>
                        </step>
                    </steps>
                </step>
                <step start='1702653362861' status='passed' stop='1702653363079'>
                    <name>Then the 'Sign up' overlay is displayed ""</name>
                    <title>Then the 'Sign up' overlay is displayed ""</title>
                    <attachments/>
                    <steps>
                        <step start='1702653362861' status='passed' stop='1702653362866'>
                            <name>I wait for element ".mc_dialog__header", 60, {"visible":true,"interval":1000}</name>
                            <title>I wait for element ".mc_dialog__header", 60, {"visible":true,"interval":1000}</title>
                            <attachments/>
                            <steps/>
                        </step>
                        <step start='1702653362867' status='passed' stop='1702653362871'>
                            <name>I grab text from ".mc_dialog__header"</name>
                            <title>I grab text from ".mc_dialog__header"</title>
                            <attachments/>
                            <steps/>
                        </step>
                        <step start='1702653362872' status='passed' stop='1702653362881'>
                            <name>I wait for element "//a[@class='mc_dialog__close js_close_dialog'][1]", 5</name>
                            <title>I wait for element "//a[@class='mc_dialog__close js_close_dialog'][1]", 5</title>
                            <attachments/>
                            <steps/>
                        </step>
                        <step start='1702653362882' status='passed' stop='1702653363076'>
                            <name>I click {xpath: (//a[@class='mc_dialog__close js_close_dialog'][1])[position()=1]}</name>
                            <title>I click {xpath: (//a[@class='mc_dialog__close js_close_dialog'][1])[position()=1]}</title>
                            <attachments/>
                            <steps/>
                        </step>
                    </steps>
                </step>
                <step start='1702653363079' status='passed' stop='1702653363415'>
                    <name>When I click the 'Start Session' button ""</name>
                    <title>When I click the 'Start Session' button ""</title>
                    <attachments/>
                    <steps>
                        <step start='1702653363079' status='passed' stop='1702653363413'>
                            <name>I click "//div[@id='mc_btn_start_private']"</name>
                            <title>I click "//div[@id='mc_btn_start_private']"</title>
                            <attachments/>
                            <steps/>
                        </step>
                    </steps>
                </step>
                <step start='1702653363415' status='passed' stop='1702653363635'>
                    <name>Then the 'Sign up' overlay is displayed ""</name>
                    <title>Then the 'Sign up' overlay is displayed ""</title>
                    <attachments/>
                    <steps>
                        <step start='1702653363415' status='passed' stop='1702653363421'>
                            <name>I wait for element ".mc_dialog__header", 60, {"visible":true,"interval":1000}</name>
                            <title>I wait for element ".mc_dialog__header", 60, {"visible":true,"interval":1000}</title>
                            <attachments/>
                            <steps/>
                        </step>
                        <step start='1702653363421' status='passed' stop='1702653363426'>
                            <name>I grab text from ".mc_dialog__header"</name>
                            <title>I grab text from ".mc_dialog__header"</title>
                            <attachments/>
                            <steps/>
                        </step>
                        <step start='1702653363426' status='passed' stop='1702653363432'>
                            <name>I wait for element "//a[@class='mc_dialog__close js_close_dialog'][1]", 5</name>
                            <title>I wait for element "//a[@class='mc_dialog__close js_close_dialog'][1]", 5</title>
                            <attachments/>
                            <steps/>
                        </step>
                        <step start='1702653363433' status='passed' stop='1702653363634'>
                            <name>I click {xpath: (//a[@class='mc_dialog__close js_close_dialog'][1])[position()=1]}</name>
                            <title>I click {xpath: (//a[@class='mc_dialog__close js_close_dialog'][1])[position()=1]}</title>
                            <attachments/>
                            <steps/>
                        </step>
                    </steps>
                </step>
            </steps>
            <attachments/>
        </test-case>
    </test-cases>
</ns2:test-suite>