"Status","Start Time","Stop Time","Duration in ms","Parent Suite","Suite","Sub Suite","Test Class","Test Method","Name","Description"
"passed","Fri Dec 15 17:34:53 CET 2023","Fri Dec 15 17:35:07 CET 2023","14075","","Search Psychics","","Search Psychics","Search for different terms {""searchTerm"":""Myst"",""expectedTerm"":""myst""}","Search for different terms {""searchTerm"":""Myst"",""expectedTerm"":""myst""}",""
"passed","Fri Dec 15 17:28:37 CET 2023","Fri Dec 15 17:28:48 CET 2023","10837","","Oranum Homepage Validation","","Oranum Homepage Validation","Validate different topics on the Oranum homepage {""topic"":""Mediumship""}","Validate different topics on the Oranum homepage {""topic"":""Mediumship""}",""
"passed","Fri Dec 15 17:29:20 CET 2023","Fri Dec 15 17:29:32 CET 2023","11631","","Oranum Homepage Validation","","Oranum Homepage Validation","Validate different topics on the Oranum homepage {""topic"":""Palm reading""}","Validate different topics on the Oranum homepage {""topic"":""Palm reading""}",""
"passed","Fri Dec 15 17:35:21 CET 2023","Fri Dec 15 17:35:34 CET 2023","13187","","Search Psychics","","Search Psychics","Search for different terms {""searchTerm"":""pys"",""expectedTerm"":""pys""}","Search for different terms {""searchTerm"":""pys"",""expectedTerm"":""pys""}",""
"passed","Fri Dec 15 17:29:09 CET 2023","Fri Dec 15 17:29:20 CET 2023","11180","","Oranum Homepage Validation","","Oranum Homepage Validation","Validate different topics on the Oranum homepage {""topic"":""Runes""}","Validate different topics on the Oranum homepage {""topic"":""Runes""}",""
"passed","Fri Dec 15 17:28:06 CET 2023","Fri Dec 15 17:28:16 CET 2023","10034","","Oranum Homepage Validation","","Oranum Homepage Validation","Validate different topics on the Oranum homepage {""topic"":""Dream interpretation""}","Validate different topics on the Oranum homepage {""topic"":""Dream interpretation""}",""
"passed","Fri Dec 15 17:27:56 CET 2023","Fri Dec 15 17:28:06 CET 2023","10123","","Oranum Homepage Validation","","Oranum Homepage Validation","Validate different topics on the Oranum homepage {""topic"":""Clairvoyance""}","Validate different topics on the Oranum homepage {""topic"":""Clairvoyance""}",""
"passed","Fri Dec 15 17:28:16 CET 2023","Fri Dec 15 17:28:27 CET 2023","10313","","Oranum Homepage Validation","","Oranum Homepage Validation","Validate different topics on the Oranum homepage {""topic"":""Healing""}","Validate different topics on the Oranum homepage {""topic"":""Healing""}",""
"passed","Fri Dec 15 17:28:59 CET 2023","Fri Dec 15 17:29:09 CET 2023","9862","","Oranum Homepage Validation","","Oranum Homepage Validation","Validate different topics on the Oranum homepage {""topic"":""Numerology""}","Validate different topics on the Oranum homepage {""topic"":""Numerology""}",""
"passed","Fri Dec 15 17:29:32 CET 2023","Fri Dec 15 17:29:42 CET 2023","10369","","Oranum Homepage Validation","","Oranum Homepage Validation","Validate different topics on the Oranum homepage {""topic"":""Energy work""}","Validate different topics on the Oranum homepage {""topic"":""Energy work""}",""
"passed","Fri Dec 15 17:28:48 CET 2023","Fri Dec 15 17:28:59 CET 2023","10925","","Oranum Homepage Validation","","Oranum Homepage Validation","Validate different topics on the Oranum homepage {""topic"":""Crystal ball""}","Validate different topics on the Oranum homepage {""topic"":""Crystal ball""}",""
"passed","Fri Dec 15 17:28:27 CET 2023","Fri Dec 15 17:28:37 CET 2023","9990","","Oranum Homepage Validation","","Oranum Homepage Validation","Validate different topics on the Oranum homepage {""topic"":""Crystals""}","Validate different topics on the Oranum homepage {""topic"":""Crystals""}",""
"passed","Fri Dec 15 17:27:35 CET 2023","Fri Dec 15 17:27:45 CET 2023","10029","","Oranum Homepage Validation","","Oranum Homepage Validation","Validate different topics on the Oranum homepage {""topic"":""Astrology""}","Validate different topics on the Oranum homepage {""topic"":""Astrology""}",""
"passed","Fri Dec 15 17:35:07 CET 2023","Fri Dec 15 17:35:21 CET 2023","14031","","Search Psychics","","Search Psychics","Search for different terms {""searchTerm"":""Ann"",""expectedTerm"":""ann""}","Search for different terms {""searchTerm"":""Ann"",""expectedTerm"":""ann""}",""
"passed","Fri Dec 15 17:29:51 CET 2023","Fri Dec 15 17:29:51 CET 2023","193","","homepage:","","homepage:","test something","test something",""
"passed","Fri Dec 15 17:29:42 CET 2023","Fri Dec 15 17:29:51 CET 2023","8433","","Validate 'sign up' overlay triggers for buttons on psychic livestream","","Validate 'sign up' overlay triggers for buttons on psychic livestream","Check the psychic is live and validate the buttons","Check the psychic is live and validate the buttons",""
"passed","Fri Dec 15 17:27:45 CET 2023","Fri Dec 15 17:27:56 CET 2023","10474","","Oranum Homepage Validation","","Oranum Homepage Validation","Validate different topics on the Oranum homepage {""topic"":""Tarot""}","Validate different topics on the Oranum homepage {""topic"":""Tarot""}",""
"passed","Fri Dec 15 17:34:38 CET 2023","Fri Dec 15 17:34:53 CET 2023","14118","","Search Psychics","","Search Psychics","Search for different terms {""searchTerm"":""Matt"",""expectedTerm"":""matt""}","Search for different terms {""searchTerm"":""Matt"",""expectedTerm"":""matt""}",""
